^C:\USERS\MICHAEL\APPDATA\LOCAL\TEMPORARY PROJECTS\TREEVISUALIZER\PROPERTIES\RESOURCES.RESX
^C:\USERS\MICHAEL\APPDATA\LOCAL\TEMPORARY PROJECTS\TREEVISUALIZER\FORM1.RESX
^D:\DOCUMENTS\BIENDICH_0.9.22\TOOLS\BIENDICHTESTER\BIENDICHTESTER\PROPERTIES\RESOURCES.RESX
^D:\DOCUMENTS\BIENDICH_0.9.22\TOOLS\BIENDICHTESTER\BIENDICHTESTER\FORM1.RESX
^D:\DOCUMENTS\BIENDICH_0.9.22\TEST\BIENDICHTESTER\BIENDICHTESTER\PROPERTIES\RESOURCES.RESX
^D:\DOCUMENTS\BIENDICH_0.9.22\TEST\BIENDICHTESTER\BIENDICHTESTER\FORM1.RESX
^D:\DOCUMENTS\BIENDICH_0.9.30\TEST\BIENDICHTESTER\BIENDICHTESTER\FORM1.RESX
^D:\DOCUMENTS\BIENDICH_0.9.30\TEST\BIENDICHTESTER\BIENDICHTESTER\PROPERTIES\RESOURCES.RESX
^D:\DOCUMENTS\BIENDICH_0.9.34\TEST\BIENDICHTESTER\BIENDICHTESTER\PROPERTIES\RESOURCES.RESX
^D:\DOCUMENTS\BIENDICH_0.9.34\TEST\BIENDICHTESTER\BIENDICHTESTER\FORM1.RESX
^D:\DOCUMENTS\BIENDICH_1.00\TEST\BIENDICHTESTER\BIENDICHTESTER\PROPERTIES\RESOURCES.RESX
^D:\DOCUMENTS\BIENDICH_1.00\TEST\BIENDICHTESTER\BIENDICHTESTER\FORM1.RESX
^D:\DOCUMENTS\институт\BIENDICH_1.00\TEST\BIENDICHTESTER\BIENDICHTESTER\FORM1.RESX
^D:\DOCUMENTS\институт\BIENDICH_1.00\TEST\BIENDICHTESTER\BIENDICHTESTER\PROPERTIES\RESOURCES.RESX
^C:\DEV\BIENDICH_1.00\TEST\BIENDICHTESTER\BIENDICHTESTER\FORM1.RESX
^C:\DEV\BIENDICH_1.00\TEST\BIENDICHTESTER\BIENDICHTESTER\PROPERTIES\RESOURCES.RESX
